<svg width="20" height="20" viewBox="0 0 20 20" fill="none" xmlns="http://www.w3.org/2000/svg">
<g clip-path="url(#clip0_378_1184)">
<path d="M16.6667 16.6667H0V2.5C0 1.83696 0.263392 1.20107 0.732233 0.732233C1.20107 0.263392 1.83696 0 2.5 0L14.1667 0C14.8297 0 15.4656 0.263392 15.9344 0.732233C16.4033 1.20107 16.6667 1.83696 16.6667 2.5V16.6667ZM1.66667 15H15V2.5C15 2.27899 14.9122 2.06702 14.7559 1.91074C14.5996 1.75446 14.3877 1.66667 14.1667 1.66667H2.5C2.27899 1.66667 2.06702 1.75446 1.91074 1.91074C1.75446 2.06702 1.66667 2.27899 1.66667 2.5V15ZM18.3333 3.48667V18.3333H3.33333V20H20V5.83333C19.9979 5.31812 19.8366 4.81614 19.5383 4.39608C19.2399 3.97603 18.8191 3.6584 18.3333 3.48667Z" fill="black"/>
</g>
<defs>
<clipPath id="clip0_378_1184">
<rect width="20" height="20" fill="white"/>
</clipPath>
</defs>
</svg>
