<svg width="24" height="24" viewBox="0 0 24 24" fill="none" xmlns="http://www.w3.org/2000/svg">
<path d="M21 11.2503V19.5003C21 19.8981 20.842 20.2797 20.5607 20.561C20.2794 20.8423 19.8978 21.0003 19.5 21.0003H4.5C4.10218 21.0003 3.72064 20.8423 3.43934 20.561C3.15804 20.2797 3 19.8981 3 19.5003V4.50031C3 4.10249 3.15804 3.72096 3.43934 3.43965C3.72064 3.15835 4.10218 3.00031 4.5 3.00031H12.75C12.9489 3.00031 13.1397 3.07933 13.2803 3.21998C13.421 3.36064 13.5 3.5514 13.5 3.75031C13.5 3.94923 13.421 4.13999 13.2803 4.28064C13.1397 4.42129 12.9489 4.50031 12.75 4.50031H4.5V19.5003H19.5V11.2503C19.5 11.0514 19.579 10.8606 19.7197 10.72C19.8603 10.5793 20.0511 10.5003 20.25 10.5003C20.4489 10.5003 20.6397 10.5793 20.7803 10.72C20.921 10.8606 21 11.0514 21 11.2503ZM21.5344 6.53469L12.5344 15.5347C12.3915 15.674 12.1995 15.7514 12 15.7503H9C8.80109 15.7503 8.61032 15.6713 8.46967 15.5306C8.32902 15.39 8.25 15.1992 8.25 15.0003V12.0003C8.24888 11.8008 8.32633 11.6088 8.46563 11.4659L17.4656 2.46594C17.6078 2.3251 17.7999 2.24609 18 2.24609C18.2001 2.24609 18.3922 2.3251 18.5344 2.46594L21.5344 5.46594C21.6752 5.60813 21.7542 5.80018 21.7542 6.00031C21.7542 6.20045 21.6752 6.39249 21.5344 6.53469ZM19.9406 6.00031L18 4.05969L16.8094 5.25031L18.75 7.19094L19.9406 6.00031Z" fill="black"/>
</svg>
